"idensembl";"names";"log2FoldChange";"padj";"baseMean"
"ENSG00000168016.14";"TRANK1";-2,74859967722102;7,25740300567848e-05;47,9544192819657
"ENSG00000259275.4";"AC087477";2,74564634154074;2,44085043179463e-06;63,4415097063298
"ENSG00000134326.11";"CMPK2";-2,53110576072025;0,00061391828021021;42,0592668396945
"ENSG00000111335.12";"OAS2";-2,41148015465104;6,22848006317586e-05;95,6514618921005
"ENSG00000119917.14";"IFIT3";-2,34953036435577;5,22944272292603e-08;95,3627214772316
"ENSG00000108654.15";"DDX5";-2,32716498240262;3,72565399127564e-22;988,812862643149
"ENSG00000038210.14";"PI4K2B";-2,30527677106645;0,000210583475653188;54,6115314822367
"ENSG00000130045.16";"NXNL2";2,20905946954848;0,0345824294352483;35,9790664741068
"ENSG00000100201.21";"DDX17";-2,10304586753216;2,68102618779966e-16;318,287208503097
"ENSG00000145911.6";"N4BP3";1,7845290700558;0,0301870444271126;46,4762590201999
"ENSG00000111331.13";"OAS3";-1,74732511718712;2,23248679506402e-09;332,980229468648
"ENSG00000173281.5";"PPP1R3B";1,73805324838081;0,00849965202867659;64,2184062702888
"ENSG00000170271.11";"FAXDC2";1,70587689991827;0,00528316506139462;74,0533041711312
"ENSG00000184979.10";"USP18";-1,68347168470863;0,0151845269190215;58,5728884009064
"ENSG00000119922.10";"IFIT2";-1,62303630215305;0,00252034028042824;87,1519034454754
"ENSG00000135114.12";"OASL";-1,55938595141838;0,0450546435176688;63,6204889757276
"ENSG00000185745.10";"IFIT1";-1,51590569986631;2,4947118132888e-09;387,203390093085
"ENSG00000122729.19";"ACO1";-1,47766979392373;0,01830500823846;77,9294349138189
"ENSG00000215021.9";"PHB2";-1,44371811137077;0,0202934313225265;93,1241728604679
"ENSG00000173193.15";"PARP14";-1,43032157331236;2,23248679506402e-09;544,978524461286
"ENSG00000240849.11";"TMEM189";1,42737761397793;0,0023594241402222;113,428260762969
"ENSG00000164938.14";"TP53INP1";1,42679328722143;0,0213106391262912;86,9641340502055
"ENSG00000089127.13";"OAS1";-1,40386907490043;0,00172682000925798;136,584415841289
"ENSG00000188313.13";"PLSCR1";-1,38546424972901;0,00172682000925798;136,237045828151
"ENSG00000152926.15";"ZNF117";1,37938444189077;0,0303868236576991;97,0905036919717
"ENSG00000059378.13";"PARP12";-1,33887515074234;0,0481379205420358;88,5758074591218
"ENSG00000013588.8";"GPRC5A";1,3368419849677;0,00271763833854591;275,698414184352
"ENSG00000107201.10";"DDX58";-1,292184888927;0,000195836815984343;257,731434715381
"ENSG00000152234.16";"ATP5F1A";-1,24823355248575;0,000195836815984343;303,047184466191
"ENSG00000152778.9";"IFIT5";-1,24331550462192;0,0112339928596817;123,699983456286
"ENSG00000130402.12";"ACTN4";-1,23579123034095;0,0066876603629111;163,906287964311
"ENSG00000137628.17";"DDX60";-1,23136184832579;0,0164157034418663;121,366624661762
"ENSG00000159199.14";"ATP5MC1";1,19312530351524;0,0442048917286986;131,934109645456
"ENSG00000115267.8";"IFIH1";-1,15884385440433;0,0213106391262912;151,688514339054
"ENSG00000136492.9";"BRIP1";-1,04675922596029;0,00081099533808044;972,084287078554
"ENSG00000140526.18";"ABHD2";1,01058886770411;0,000429760337590001;463,398222101207
"ENSG00000054793.14";"ATP9A";-0,988909721483476;0,00465239772217183;284,526809056998
"ENSG00000170540.15";"ARL6IP1";0,897701266557046;0,00822462263433873;361,026364119466
"ENSG00000253729.8";"PRKDC";-0,858312496564359;0,00172682000925798;773,502204107191
"ENSG00000189091.13";"SF3B3";-0,856382747256907;0,00822462263433873;533,412592899138
"ENSG00000115415.19";"STAT1";-0,845963786461274;0,00061391828021021;1058,39613802361
"ENSG00000080824.18";"HSP90AA1";0,778983984157008;0,0151845269190215;2447,90287168074
"ENSG00000235123.5";"DSCAM-AS1";0,699382420842659;0,0154730423938107;1127,34445794804
"ENSG00000109814.12";"UGDH";0,674561504747017;0,0319548180399087;1209,55141177962
